{
 "attach_print": 0,
 "channel": "Email",
 "condition": "doc.due_date==nowdate()",
 "creation": "2022-10-15 08:42:58.976108",
 "date_changed": "due_date",
 "days_in_advance": 1,
 "docstatus": 0,
 "doctype": "Notification",
 "document_type": "Country Services",
 "enabled": 1,
 "event": "Days Before",
 "idx": 0,
 "is_standard": 1,
 "message": "<h3>Country Service<h3>\n\n<p> {{doc.name_id}} is nearly to Due Date",
 "modified": "2022-10-15 08:42:58.976108",
 "modified_by": "Administrator",
 "module": "Service",
 "name": "Country Service",
 "owner": "Administrator",
 "recipients": [
  {
   "receiver_by_document_field": "owner"
  }
 ],
 "send_system_notification": 1,
 "send_to_all_assignees": 0,
 "sender": "Admin",
 "sender_email": "nakulpkumar@gmail.com",
 "subject": "{{ doc.nameid }} Due date is tomorow"
}